// Jest Snapshot v1, https://goo.gl/fbAQLP

exports[`Block Resolvers should filter by hash 1`] = `
Object {
  "blocks": Object {
    "edges": Array [
      Object {
        "cursor": "BMR8HKgQLm4f7KTxzq8Q9T57KPBfFTs9UuwvvU2vguGBtQ6rqGc",
        "node": Object {
          "__typename": "BlockRecord",
          "hash": "BMR8HKgQLm4f7KTxzq8Q9T57KPBfFTs9UuwvvU2vguGBtQ6rqGc",
          "level": 1001,
          "timestamp": "2018-07-01T10:23:42.000Z",
        },
      },
      Object {
        "cursor": "BMbVtqhnzWcXVCLEZvcVVVPYdLLBrFcd2j3bufVY67WWRY8FVuN",
        "node": Object {
          "__typename": "BlockRecord",
          "hash": "BMbVtqhnzWcXVCLEZvcVVVPYdLLBrFcd2j3bufVY67WWRY8FVuN",
          "level": 1000,
          "timestamp": "2018-07-01T10:22:42.000Z",
        },
      },
    ],
    "total_count": 2,
  },
}
`;

exports[`Block Resolvers should filter by level 1`] = `
Object {
  "blocks": Object {
    "edges": Array [
      Object {
        "cursor": "BMR8HKgQLm4f7KTxzq8Q9T57KPBfFTs9UuwvvU2vguGBtQ6rqGc",
        "node": Object {
          "__typename": "BlockRecord",
          "hash": "BMR8HKgQLm4f7KTxzq8Q9T57KPBfFTs9UuwvvU2vguGBtQ6rqGc",
          "level": 1001,
          "timestamp": "2018-07-01T10:23:42.000Z",
        },
      },
      Object {
        "cursor": "BMbVtqhnzWcXVCLEZvcVVVPYdLLBrFcd2j3bufVY67WWRY8FVuN",
        "node": Object {
          "__typename": "BlockRecord",
          "hash": "BMbVtqhnzWcXVCLEZvcVVVPYdLLBrFcd2j3bufVY67WWRY8FVuN",
          "level": 1000,
          "timestamp": "2018-07-01T10:22:42.000Z",
        },
      },
    ],
    "total_count": 2,
  },
}
`;

exports[`Block Resolvers should filter by timestamp 1`] = `
Object {
  "blocks": Object {
    "edges": Array [
      Object {
        "cursor": "BMR8HKgQLm4f7KTxzq8Q9T57KPBfFTs9UuwvvU2vguGBtQ6rqGc",
        "node": Object {
          "__typename": "BlockRecord",
          "hash": "BMR8HKgQLm4f7KTxzq8Q9T57KPBfFTs9UuwvvU2vguGBtQ6rqGc",
          "level": 1001,
          "timestamp": "2018-07-01T10:23:42.000Z",
        },
      },
      Object {
        "cursor": "BMbVtqhnzWcXVCLEZvcVVVPYdLLBrFcd2j3bufVY67WWRY8FVuN",
        "node": Object {
          "__typename": "BlockRecord",
          "hash": "BMbVtqhnzWcXVCLEZvcVVVPYdLLBrFcd2j3bufVY67WWRY8FVuN",
          "level": 1000,
          "timestamp": "2018-07-01T10:22:42.000Z",
        },
      },
    ],
    "total_count": 2,
  },
}
`;

exports[`Block Resolvers should paginate with after 1`] = `
Object {
  "blocks": Object {
    "edges": Array [
      Object {
        "cursor": "BMUeoWzRfZTDmZt3hPeQ5GzJu6QKhX9EZYeDMpUssz6xNA1MDj9",
        "node": Object {
          "__typename": "BlockRecord",
          "hash": "BMUeoWzRfZTDmZt3hPeQ5GzJu6QKhX9EZYeDMpUssz6xNA1MDj9",
          "level": 999,
          "timestamp": "2018-07-01T10:21:42.000Z",
        },
      },
      Object {
        "cursor": "BLNvqh8Jj2Whvk42dW3YbzWt5krWe1mbWKDiECLtMLxr6GYav6K",
        "node": Object {
          "__typename": "BlockRecord",
          "hash": "BLNvqh8Jj2Whvk42dW3YbzWt5krWe1mbWKDiECLtMLxr6GYav6K",
          "level": 998,
          "timestamp": "2018-07-01T10:20:42.000Z",
        },
      },
      Object {
        "cursor": "BLCncXDDwjoTuWUPZiZJAyUyHUESMHqzxsWy3SdiSCBNMmqDaap",
        "node": Object {
          "__typename": "BlockRecord",
          "hash": "BLCncXDDwjoTuWUPZiZJAyUyHUESMHqzxsWy3SdiSCBNMmqDaap",
          "level": 997,
          "timestamp": "2018-07-01T10:19:42.000Z",
        },
      },
    ],
  },
}
`;

exports[`Block Resolvers should paginate with before 1`] = `
Object {
  "blocks": Object {
    "edges": Array [
      Object {
        "cursor": "BLCncXDDwjoTuWUPZiZJAyUyHUESMHqzxsWy3SdiSCBNMmqDaap",
        "node": Object {
          "__typename": "BlockRecord",
          "hash": "BLCncXDDwjoTuWUPZiZJAyUyHUESMHqzxsWy3SdiSCBNMmqDaap",
          "level": 997,
          "timestamp": "2018-07-01T10:19:42.000Z",
        },
      },
      Object {
        "cursor": "BLNvqh8Jj2Whvk42dW3YbzWt5krWe1mbWKDiECLtMLxr6GYav6K",
        "node": Object {
          "__typename": "BlockRecord",
          "hash": "BLNvqh8Jj2Whvk42dW3YbzWt5krWe1mbWKDiECLtMLxr6GYav6K",
          "level": 998,
          "timestamp": "2018-07-01T10:20:42.000Z",
        },
      },
      Object {
        "cursor": "BMUeoWzRfZTDmZt3hPeQ5GzJu6QKhX9EZYeDMpUssz6xNA1MDj9",
        "node": Object {
          "__typename": "BlockRecord",
          "hash": "BMUeoWzRfZTDmZt3hPeQ5GzJu6QKhX9EZYeDMpUssz6xNA1MDj9",
          "level": 999,
          "timestamp": "2018-07-01T10:21:42.000Z",
        },
      },
    ],
  },
}
`;

exports[`Block Resolvers should return last block (with filter to return consistent result) 1`] = `
Object {
  "blocks": Object {
    "edges": Array [
      Object {
        "cursor": "BMbVtqhnzWcXVCLEZvcVVVPYdLLBrFcd2j3bufVY67WWRY8FVuN",
        "node": Object {
          "__typename": "BlockRecord",
          "hash": "BMbVtqhnzWcXVCLEZvcVVVPYdLLBrFcd2j3bufVY67WWRY8FVuN",
          "level": 1000,
          "timestamp": "2018-07-01T10:22:42.000Z",
        },
      },
    ],
    "total_count": 1001,
  },
}
`;

exports[`Block Resolvers should return oldest blocks 1`] = `
Object {
  "blocks": Object {
    "edges": Array [
      Object {
        "cursor": "BLockGenesisGenesisGenesisGenesisGenesisf79b5d1CoW2",
        "node": Object {
          "__typename": "BlockRecord",
          "hash": "BLockGenesisGenesisGenesisGenesisGenesisf79b5d1CoW2",
          "level": 0,
          "timestamp": "2018-06-30T16:07:32.000Z",
        },
      },
      Object {
        "cursor": "BLSqrcLvFtqVCx8WSqkVJypW2kAVRM3eEj2BHgBsB6kb24NqYev",
        "node": Object {
          "__typename": "BlockRecord",
          "hash": "BLSqrcLvFtqVCx8WSqkVJypW2kAVRM3eEj2BHgBsB6kb24NqYev",
          "level": 1,
          "timestamp": "2018-06-30T17:39:57.000Z",
        },
      },
      Object {
        "cursor": "BMMmnb2LoJQs3PjvhysXAgK2pAjJE71hoqXFCs6u85xUH3KrRqa",
        "node": Object {
          "__typename": "BlockRecord",
          "hash": "BMMmnb2LoJQs3PjvhysXAgK2pAjJE71hoqXFCs6u85xUH3KrRqa",
          "level": 2,
          "timestamp": "2018-06-30T17:40:57.000Z",
        },
      },
    ],
  },
}
`;
